reset

lwidth = 2

file1 = 'data.dat'
file2 = 'imhd-tube-ana.dat'

lmin = int(system(sprintf("grep levelmin imhd-tube-3D.nml | cut -d '=' -f2")))
lmax = int(system(sprintf("grep levelmax imhd-tube-3D.nml | cut -d '=' -f2")))

set term post enh color portrait
set output 'imhd-tube-3D.ps'

set xlabel 'Distance x (cm)'
xshift = 1.5

nxpanel=1
nypanel=2
panlgap=0.08

marginx1=0.10
marginx2=0.90
marginy1=0.07
marginy2=0.99

dxpanel=(marginx2-marginx1-(nxpanel-1)*panlgap)/nxpanel
dypanel=(marginy2-marginy1-(nypanel-1)*panlgap)/nypanel

set multiplot
unset key

set lmargin at screen marginx1
set rmargin at screen marginx2
set bmargin at screen (marginy2-dypanel)
set tmargin at screen marginy2

set y2label 'AMR level' offset -1.5
set ytics nomirror
set y2tics
set autoscale  y
set y2tics lmin,1,lmax

set ylabel 'Density (g/cm3)' offset 2.0
plot file1 u ($2-xshift):3 lc 0 lt 6, file2 u 1:2 w l lw lwidth lt 1, file1 u ($2-xshift):1 w l lt 0 lc 0 axes x1y2

unset y2label
unset y2tics

set bmargin at screen marginy1
set tmargin at screen (marginy1+dypanel)

set ylabel 'By' offset 2.0
plot file1 u ($2-xshift):9 lc 0 lt 6, file2 u 1:7 w l lw lwidth lt 1

unset multiplot

unset output
